Cell-type Hierarchy Informs COVID-19 Immunology • phylobar
…
library(ape)
library(dplyr)
library(phylobar)
library(readr)
library(tibble)
library(tidyr)

f <- tempfile()
cell_counts <- read_csv("~/Downloads/COVID_all_cells_metadata_complete.csv")
metadata <- read_csv("~/Downloads/final_sample_info.csv")

First let’s get cell type compositions.

metadata
#> # A tibble: 114 × 9
#>    sample_id    clinical_id timepoint   wos severity sex      age ethnicity     
#>    <chr>        <chr>       <chr>     <dbl> <chr>    <chr>  <dbl> <chr>         
#>  1 COVID_77_T1  INCOV077    T1          1   mild     Female    51 NOT Hispanic …
#>  2 COVID_74_T1  INCOV074    T1          1.5 mild     Female    30 NOT Hispanic …
#>  3 COVID_122_T1 INCOV122    T1          1.5 mild     Female    53 NOT Hispanic …
#>  4 COVID_107_T1 INCOV107    T1          1.5 mild     Male      71 NOT Hispanic …
#>  5 COVID_39_T1  INCOV039    T1          1   mild     Female    38 NOT Hispanic …
#>  6 COVID_101_T1 INCOV101    T1          1.5 mild     Female    19 Hispanic or L…
#>  7 COVID_67_T1  INCOV067    T1          1.5 mild     Female    41 NOT Hispanic …
#>  8 COVID_135_T1 INCOV135    T1          1.5 mild     Female    50 NOT Hispanic …
#>  9 COVID_134_T1 INCOV134    T1          1.5 mild     Female    28 NOT Hispanic …
#> 10 COVID_57_T1  INCOV057    T1          1.5 mild     Female    39 NOT Hispanic …
#> # ℹ 104 more rows
#> # ℹ 1 more variable: divas_sample_id <chr>
…
